SERIES ,,,,,,,,,,
title,,,,,,,,,,
summary,,,,,,,,,,
overall design,,,,,,,,,,
contributor,,,,,,,,,,
contributor,,,,,,,,,,
supplementary file,,,,,,,,,,
SRA_center_name_code,[optional],,,,,,,,,
,,,,,,,,,,
SAMPLES,,,,,,,,,,
,,,,,,,,,,
PROTOCOLS,,,,,,,,,,
growth protocol,,,,,,,,,,
treatment protocol ,,,,,,,,,,
extract protocol,,,,,,,,,,
library construction protocol,,,,,,,,,,
library strategy,,,,,,,,,,
,,,,,,,,,,
DATA PROCESSING PIPELINE,,,,,,,,,,
data processing step,,,,,,,,,,
data processing step,,,,,,,,,,
data processing step,,,,,,,,,,
data processing step,,,,,,,,,,
data processing step,,,,,,,,,,
genome build,,,,,,,,,,
processed data files format and content,,,,,,,,,,
,,,,,,,,,,
PROCESSED DATA FILES,,,,,,,,,,
,,,,,,,,,,
RAW FILES,,,,,,,,,,
,,,,,,,,,,
PAIRED-END EXPERIMENTS,,,,,,,,,,
